EventSelector       DEBUG Property update for OutputLevel : new value = 2
EventSelector        INFO Initializing EventSelector - package version ByteStreamCnvSvc-00-00-00
EventSelector       DEBUG Service base class initialized successfully
ByteStreamInputSvc   INFO Initializing ByteStreamInputSvc - package version ByteStreamCnvSvc-00-00-00
EventSelector        INFO reinitialization...
AthenaEventLoopMgr   INFO Setup EventSelector service EventSelector
EventSelector       DEBUG Calling EventSelectorByteStream::start()
EventSelector       DEBUG Skipping event 0
EventSelector       DEBUG Calling EventSelectorByteStream::stop()
